<?xml version="1.0" encoding="UTF-8"?>
<!DOCTYPE svg PUBLIC "-//W3C//DTD SVG 1.1//EN" "http://www.w3.org/Graphics/SVG/1.1/DTD/svg11.dtd">
<!-- Creator: CorelDRAW X7 -->
<svg xmlns="http://www.w3.org/2000/svg" xml:space="preserve" width="11.6341in" height="6.29352in" version="1.1" style="shape-rendering:geometricPrecision; text-rendering:geometricPrecision; image-rendering:optimizeQuality; fill-rule:evenodd; clip-rule:evenodd"
viewBox="0 0 11546 6246"
 xmlns:xlink="http://www.w3.org/1999/xlink">
 <defs>
  <font id="FontID1" horiz-adv-x="722" font-variant="normal" style="fill-rule:nonzero" font-weight="700">
	<font-face 
		font-family="Tinos">
	</font-face>
   <missing-glyph><path d="M0 0z"/></missing-glyph>
   <glyph unicode="t" horiz-adv-x="332"><path d="M213.831 -10.0004c-43.8333,0 -77.8296,10.0004 -101.83,29.8336 -23.8367,19.8332 -35.8347,48.4985 -35.8347,85.9999l0 302.336 -60.0023 0 0 31.8312 70.836 18.9999 56.9996 103.999 73.3319 0 0 -103.999 96.6661 0 0 -50.8311 -96.6661 0 0 -293.667c0,-21.1691 4.33433,-37.0031 13.1663,-47.8368 8.83618,-10.6662 20.3358,-16.1648 34.6663,-16.1648 17.1698,0 38.3348,2.6676 63.5032,7.83112l0 -41.4965c-9.83287,-6.83443 -26.5002,-13.003 -50.1694,-18.5015 -23.4975,-5.49853 -45.165,-8.33365 -64.6674,-8.33365z"/></glyph>
   <glyph unicode="A" horiz-adv-x="722"><path d="M208.999 35.6672l0 -35.6672 -199.166 0 0 35.6672 48.666 13.1663 233.003 611.166 141.5 0 231.83 -611.166 49.8344 -13.1663 0 -35.6672 -291.502 0 0 35.6672 75.6687 13.1663 -62.5024 169.5 -251.333 0 -59.9981 -169.5 83.9981 -13.1663zm104.003 525.665l-108.002 -289.333 212.835 0 -104.832 289.333z"/></glyph>
   <glyph unicode="n" horiz-adv-x="556"><path d="M211.834 418.835l33.1671 16.9981c45.6676,23.5017 86.6657,35.1688 122.999,35.1688 84.6682,0 127.002,-45.0017 127.002,-135.168l0 -291.833 45.8309 -11.8346 0 -32.1662 -227.999 0 0 32.1662 40.9982 11.8346 0 272.833c0,27.3335 -5.66604,48.4985 -17.3331,63.8341 -11.4996,15.3314 -27.9994,22.9992 -49.4994,22.9992 -24.6659,0 -49.4994,-5.49853 -74.1653,-16.6673l0 -342.999 41.9991 -11.8346 0 -32.1662 -227.999 0 0 32.1662 44.9975 11.8346 0 370.998 -44.9975 11.8346 0 32.1662 178.164 0 6.83443 -40.1648z"/></glyph>
   <glyph unicode="I" horiz-adv-x="389"><path d="M271.501 48.8335l83.9981 -12.668 0 -36.1655 -321.834 0 0 36.1655 84.0023 12.668 0 557.333 -84.0023 13.1663 0 35.6672 321.834 0 0 -35.6672 -83.9981 -13.1663 0 -557.333z"/></glyph>
   <glyph unicode="C" horiz-adv-x="722"><path d="M397.833 -10.0004c-109.665,0 -195.166,29.1678 -256.831,87.4991 -61.5015,58.168 -92.1685,139 -92.1685,242.17 0,111.998 29.3311,196.997 88.165,255.165 58.6664,58.168 145.5,87.1683 260.336,87.1683 75.832,0 154.499,-10.8337 235.834,-32.6687l2.83093 -157.334 -43.8333 0 -13.6647 94.8361c-42.9999,29.3311 -93.0018,43.8333 -149.834,43.8333 -75.5012,0 -130.667,-23.5017 -165.5,-70.501 -34.8338,-46.9993 -52.167,-120 -52.167,-218.999 0,-91.5026 18.1665,-161.166 54.6671,-209.003 36.333,-48.0001 89.3334,-71.8327 159.001,-71.8327 36.8314,0 68.9976,4.83268 96.4986,14.6697 27.501,9.66536 49.001,21.3325 64.6674,34.6663l15.4989 107.332 44.4992 0 -2.83093 -165.999c-29.3353,-11.3363 -67.5025,-21.0016 -114.334,-29.0003 -46.8359,-8.00281 -90.5017,-12.0021 -130.834,-12.0021z"/></glyph>
   <glyph unicode="T" horiz-adv-x="667"><path d="M151.333 0l0 35.6672 103.999 13.1663 0 554.502 -24.8334 0c-74.5003,0 -126.998,-3.33346 -157.167,-9.83705l-13.3338 -121.663 -44.3317 0 0 183.164 636.167 0 0 -183.164 -44.8342 0 -13.1663 121.663c-27.166,5.83355 -80.5014,8.83618 -160.165,8.83618l-24.0001 0 0 -553.501 103.999 -13.1663 0 -35.6672 -362.334 0z"/></glyph>
   <glyph unicode="s" horiz-adv-x="389"><path d="M364.666 145.332c0,-51.1661 -15.8339,-89.8317 -47.1668,-115.997 -31.3328,-26.1693 -77.0004,-39.3357 -136.831,-39.3357 -24.8334,0 -52.0036,2.6676 -81.8331,7.99863 -29.8336,5.50272 -52.3345,11.0013 -67.6701,16.8348l0 125.001 32.3337 0 18.5015 -64.3324c11.3321,-11.4996 26.3327,-21.0016 44.8342,-28.6694 18.6649,-7.66361 37.4972,-11.4996 56.6646,-11.4996 28.3344,0 49.336,6.16857 63.1682,18.334 13.8322,12.333 20.8341,27.8319 20.8341,46.6684 0,17.999 -6.66692,32.3337 -20.1683,42.9999 -13.3338,10.6662 -42.3341,23.1667 -87.3316,37.1664 -47.1668,14.6655 -80.5014,34.6663 -100.167,59.9981 -19.6699,25.336 -29.5028,56.6688 -29.5028,93.8352 0,41.664 15.3356,74.8311 46.3334,99.497 30.8345,24.8334 70.6685,37.1706 119.502,37.1706 33.4979,0 78.6671,-4.66936 135.164,-14.1672l0 -117.668 -32.1662 0 -15.6664 53.6662c-9.33033,9.50203 -22.6642,17.1656 -39.6665,23.1667 -17.1656,6.16857 -33.3304,9.16701 -48.666,9.16701 -23.3342,0 -40.6674,-4.83268 -51.8319,-14.498 -11.3363,-9.50203 -16.8348,-22.6684 -16.8348,-39.3357 0,-17.1656 7.00194,-31.3328 21.0016,-42.5016 13.9997,-10.9971 42.6649,-22.9992 86.3307,-35.998 47.5018,-14.6655 81.1672,-34.0004 101,-58.0005 19.8332,-23.8326 29.8336,-53.6662 29.8336,-89.5009z"/></glyph>
   <glyph unicode="K" horiz-adv-x="777"><path d="M717.502 655l0 -35.6672 -80.1705 -12.6638 -216.331 -191.004 288.168 -366.831 60.9989 -13.1663 0 -35.6672 -213.836 0 -244.666 315.502 -56.8321 -48.8335 0 -217.835 94.3335 -13.1663 0 -35.6672 -332.002 0 0 35.6672 84.0023 13.1663 0 557.835 -84.0023 12.6638 0 35.6672 322.169 0 0 -35.6672 -84.5007 -12.6638 0 -266.668 298.5 266.668 -59.9981 12.6638 0 35.6672 224.167 0z"/></glyph>
   <glyph unicode="u" horiz-adv-x="556"><path d="M344.167 40.3323l-33.1671 -17.1656c-45.6676,-23.5017 -86.6657,-35.1646 -122.999,-35.1646 -84.6682,0 -127.002,44.9975 -127.002,135.164l0 291.833 -45.8309 11.8346 0 32.1662 187 0 0 -316.666c0,-27.3335 5.66604,-48.666 17.3331,-64.0016 11.4996,-15.3314 27.9994,-22.9992 49.4994,-22.9992 24.6659,0 49.4994,5.66604 74.1653,16.6673l0 342.999 -41.9991 11.8346 0 32.1662 183.164 0 0 -414.999 44.8342 -11.8346 0 -32.1662 -178.164 0 -6.83443 40.3323z"/></glyph>
   <glyph unicode=" " horiz-adv-x="250"></glyph>
   <glyph unicode="S" horiz-adv-x="556"><path d="M53.1678 200.502l42.9999 0 21.9983 -105c13.6689,-16.0014 34.3355,-29.3353 61.9998,-40.0015 27.6685,-10.8337 56.3338,-16.169 85.8324,-16.169 93.5002,0 140.169,38.3348 140.169,115.168 0,24.1676 -8.9995,44.4992 -26.6677,61.1665 -17.664,16.4998 -45.6676,31.3328 -83.6673,44.3358 -55.9988,18.6649 -96.3311,33.6654 -120.834,45.165 -24.4984,11.6671 -45.3325,25.1685 -62.1631,40.8349 -17.0023,15.6664 -30.5037,34.6663 -40.6674,56.9996 -10.0004,22.1658 -15.0006,49.6669 -15.0006,82.1639 0,57.6697 19.4982,101.503 58.8339,131.667 39.164,30.1686 96.4986,45.1692 172,45.1692 54.6671,0 115.168,-7.00194 181.665,-21.0016l0 -155.668 -43.4983 0 -22.0025 89.8359c-33.1671,24.0001 -71.8327,35.998 -116.164,35.998 -40.0015,0 -70.836,-7.33277 -92.1685,-22.1658 -21.5,-14.8331 -32.3337,-37.5014 -32.3337,-68.1684 0,-21.8308 8.9995,-40.4999 26.8352,-55.8312 17.999,-15.4989 45.9984,-29.3353 83.9981,-41.3332 74.5003,-24.3351 125.666,-45.6676 153.502,-63.6666 27.8319,-18.1665 49.1643,-40.4999 63.6666,-67.1675 14.6655,-26.6677 21.9983,-58.168 21.9983,-94.3335 0,-139 -81.8331,-208.5 -245.499,-208.5 -37.5014,0 -75.6687,3.16595 -114.502,9.50203 -38.8331,6.3319 -72.331,14.8331 -100.33,25.1643l0 175.836z"/></glyph>
   <glyph unicode="P" horiz-adv-x="610"><path d="M425.502 461.165c0,52.0036 -9.66954,88.5 -29.1678,109.167 -19.3349,20.6666 -53.4987,31.002 -102.332,31.002l-38.6698 0 0 -290.668 40.6674 0c45.1692,0 78.1688,11.5038 98.6679,34.168 20.4991,22.8317 30.8345,61.669 30.8345,116.332zm-170.17 -204.166l0 -208.165 109.003 -13.1663 0 -35.6672 -340.834 0 0 35.6672 77.6662 13.1663 0 557.835 -84.0023 12.6638 0 35.6672 288.499 0c92.8343,0 162.167,-15.4989 208.169,-46.6642 45.8309,-31.002 68.8343,-79.8355 68.8343,-146.17 0,-136.831 -79.8355,-205.167 -239.335,-205.167l-88.0016 0z"/></glyph>
   <glyph unicode="o" horiz-adv-x="500"><path d="M461.998 231.667c0,-82.3356 -17.664,-143.167 -52.9961,-182.499 -35.3363,-39.5032 -89.3334,-59.1689 -162.004,-59.1689 -70.166,0 -122.664,20.0008 -157.167,59.8348 -34.4988,39.834 -51.6644,100.498 -51.6644,181.833 0,81.1672 17.5007,141.333 52.4978,180.501 34.8338,39.164 88.3367,58.8339 160.337,58.8339 72.4985,0 125.83,-20.3358 159.83,-60.8356 34.0004,-40.4999 51.1661,-99.9996 51.1661,-178.499zm-143.163 0c0,71.6652 -5.33521,121.165 -15.8339,148.833 -10.6662,27.501 -28.8327,41.1657 -55.0021,41.1657 -25.0009,0 -42.4974,-13.1663 -52.167,-39.499 -9.83287,-26.3327 -14.6655,-76.502 -14.6655,-150.5 0,-75.1661 5.00019,-126.169 14.8331,-152.832 10.0004,-26.6677 27.3335,-40.0015 51.9994,-40.0015 25.8343,0 44.0008,13.9997 54.6671,42.1666 10.8337,28.1669 16.169,78.4996 16.169,150.667z"/></glyph>
   <glyph unicode="l" horiz-adv-x="277"><path d="M210.502 44.0008l50.3327 -11.8346 0 -32.1662 -241.337 0 0 32.1662 49.8344 11.8346 0 605.999 -46.8317 11.8346 0 32.1662 188.001 0 0 -649.999z"/></glyph>
   <glyph unicode="i" horiz-adv-x="277"><path d="M212.998 44.0008l50.1694 -11.8346 0 -32.1662 -241.169 0 0 32.1662 49.8344 11.8346 0 370.998 -46.8317 11.8346 0 32.1662 187.997 0 0 -414.999zm-145.998 575.164c0,21.1691 7.33277,39.0006 22.1658,53.3353 14.8331,14.1672 32.5012,21.3325 53.0003,21.3325 20.8341,0 38.5023,-7.16526 53.0003,-21.6675 14.5022,-14.498 21.6675,-32.1662 21.6675,-53.0003 0,-20.4991 -7.16526,-38.1631 -21.5,-52.9961 -14.3347,-14.8372 -31.9987,-22.17 -53.1678,-22.17 -20.8341,0 -38.6656,7.16945 -53.3312,21.6675 -14.5022,14.5022 -21.835,32.3337 -21.835,53.4987z"/></glyph>
  </font>
  <font id="FontID0" horiz-adv-x="611" font-variant="normal" style="fill-rule:nonzero" font-style="normal" font-weight="700">
	<font-face 
		font-family="Arima Madurai">
	</font-face>
   <missing-glyph><path d="M0 0z"/></missing-glyph>
   <glyph unicode="f" horiz-adv-x="396"><path d="M270.998 742.002c44.669,0 79.8381,-7.49994 105.499,-22.4998 25.6691,-14.9999 38.4997,-36.4997 38.4997,-64.4995 0,-19.3386 -6.66124,-34.9997 -19.9998,-46.9996 -13.3305,-11.9999 -29.3304,-17.9999 -47.9996,-17.9999 -22.6611,0 -38.3303,5.3306 -46.9996,15.9999 12.6693,17.3305 18.9998,34.661 18.9998,51.9996 0,30.661 -16.6612,45.9996 -49.9996,45.9996 -21.3305,0 -37.161,-7.99994 -47.4996,-23.9998 -10.3306,-15.9999 -16.8305,-35.9997 -19.4998,-59.9995 -2.66127,-23.9998 -3.99997,-55.6689 -3.99997,-94.9992l0 -12.9999 36.9997 0c11.9999,0 28.3385,0.330642 48.9996,0.999992 20.6692,0.661285 36.9997,1.33063 48.9996,1.99998l-0.999992 -27.0078c-0.661285,-8.66122 -3.66126,-15.4999 -8.99993,-20.4998 -5.3306,-4.99996 -11.9999,-7.49994 -19.9998,-7.49994l-104.999 0 0 -328.997c0,-49.9996 5.33867,-89.6686 15.9999,-118.999 -17.9999,-16.6692 -38.661,-24.9998 -61.9995,-24.9998 -18.6692,0 -33.8304,5.3306 -45.4996,15.9999 -11.6693,10.6693 -17.4999,24.6692 -17.4999,41.9997l0 414.997 -10.9999 0c-8.66928,0 -18.6692,-0.330642 -29.9998,-0.999992 -11.3306,-0.661285 -21.3305,-1.66128 -29.9998,-2.99998l0.999992 28.9998c0.669349,8.66928 3.66933,15.3386 8.99993,20.0079 5.3306,4.66125 11.9999,6.99994 19.9998,6.99994l40.9997 0 0 31.9997c0,131.999 60.6689,197.998 181.999,197.998z"/></glyph>
   <glyph unicode="t" horiz-adv-x="346"><path d="M214.998 512.004c12.6693,0 29.9998,0.330642 51.9996,0.999992 21.9998,0.661285 39.3384,1.33063 51.9996,1.99998l-0.999992 -27.0078c-0.661285,-8.66122 -3.49997,-15.4999 -8.49993,-20.4998 -4.99996,-4.99996 -11.4999,-7.49994 -19.4998,-7.49994l-93.9992 0 0 -32.9997 -0.999992 -300.998c0,-35.9997 15.6692,-53.9996 46.9996,-53.9996 9.33863,0 18.1692,1.49999 26.4998,4.49996 8.33864,2.99998 13.8386,7.1693 16.4999,12.4999 8.66928,-12.6693 12.9999,-24.9998 12.9999,-36.9997 0,-18.6692 -9.16122,-33.8304 -27.4998,-45.4996 -18.3305,-11.6693 -41.8303,-17.4999 -70.4994,-17.4999 -35.9997,0 -63.9995,11.3306 -83.9993,33.9997 -19.9998,22.6692 -29.9998,53.9996 -29.9998,93.9992l0 342.997 -13.9999 0c-8.66928,0 -18.6692,-0.330642 -29.9998,-0.999992 -11.3306,-0.661285 -21.3305,-1.66128 -29.9998,-2.99998l0.999992 28.9998c0.669349,8.66928 3.66933,15.3386 8.99993,20.0079 5.3306,4.66125 11.9999,6.99994 19.9998,6.99994l43.9996 0 0 75.9994c0,17.3305 5.99995,31.161 17.9999,41.4997 11.9999,10.3306 27.3304,15.4999 45.9996,15.4999 23.3385,0 43.9996,-7.99994 61.9995,-23.9998 -7.99994,-29.3385 -12.9999,-65.6688 -14.9999,-108.999l17.9999 0z"/></glyph>
   <glyph unicode="c" horiz-adv-x="509"><path d="M281.998 -12.9999c-77.33,0 -137.168,23.1692 -179.499,69.4994 -42.3303,46.3303 -63.4995,112.838 -63.4995,199.498 0,83.9993 21.6692,149.999 64.9995,197.998 43.3303,48.0077 104.338,72.0075 182.999,72.0075 56.6689,0 100.499,-11.8386 131.499,-35.5078 30.9998,-23.6611 46.4996,-54.1609 46.4996,-91.4993 0,-25.3304 -7.49994,-45.6609 -22.4998,-60.9995 -14.9999,-15.3305 -34.4997,-22.9998 -58.4995,-22.9998 -11.3306,0 -22.4998,1.83869 -33.4997,5.49996 -10.9999,3.66933 -19.4998,9.16928 -25.4998,16.4999 19.9998,13.3386 29.9998,36.9997 29.9998,70.9994 0,26.6691 -6.99994,46.169 -20.9998,58.4995 -13.9999,12.3386 -32.661,18.4999 -55.9995,18.4999 -37.3303,0 -66.9995,-18.4999 -88.9993,-55.4996 -21.9998,-36.9997 -32.9997,-89.1606 -32.9997,-156.499 0,-74.6607 13.9999,-129.33 41.9997,-163.999 27.9998,-34.6691 66.6688,-51.9996 115.999,-51.9996 35.3384,0 65.6688,8.66928 90.9993,25.9998 25.3385,17.3305 41.669,40.9997 48.9996,70.9994 10.6693,-3.99997 15.9999,-13.6692 15.9999,-28.9998 0,-8.66928 -1.33063,-17.9999 -3.99997,-27.9998 -10.6612,-35.3304 -32.161,-62.4995 -64.4995,-81.4993 -32.3304,-18.9998 -72.1607,-28.4998 -119.499,-28.4998z"/></glyph>
   <glyph unicode="y" horiz-adv-x="553"><path d="M490.996 50.9996c0,-185.999 -82.9993,-278.998 -248.998,-278.998 -52.6609,0 -95.9992,8.16122 -129.999,24.4998 -33.9997,16.3305 -50.9996,43.4996 -50.9996,81.4993 0,20.6692 7.1693,37.4997 21.4998,50.4996 14.3305,12.9999 32.8304,19.4998 55.4996,19.4998 23.9998,0 40.9997,-6.33059 50.9996,-18.9998 -9.33057,-5.99995 -16.1612,-13.4999 -20.4998,-22.4998 -4.33061,-8.99993 -6.49995,-17.8305 -6.49995,-26.4998 0,-21.9998 7.66929,-39.3303 22.9998,-51.9996 15.3386,-12.6693 34.9997,-18.9998 58.9995,-18.9998 47.9996,0 83.9993,19.9998 107.999,59.9995 23.9998,39.9997 35.9997,96.9992 35.9997,170.999 0,12.6693 1.99998,38.3303 5.99995,76.9994 -13.3305,-40.669 -33.9997,-71.6688 -61.9995,-92.9993 -27.9998,-21.3305 -63.3301,-31.9997 -105.999,-31.9997 -52.6609,0 -91.4993,15.8305 -116.499,47.4996 -24.9998,31.6691 -37.4997,84.1687 -37.4997,157.499l-0.999992 184.999c0,51.3383 -5.3306,91.338 -15.9999,120.007 18.6692,15.9999 39.669,23.9998 62.9995,23.9998 18.6692,0 33.8304,-5.16931 45.4996,-15.4999 11.6693,-10.3386 17.4999,-24.5079 17.4999,-42.5077l0 -254.998c0,-57.9995 5.83866,-100.169 17.4999,-126.499 11.6693,-26.3304 32.1691,-39.4997 61.4995,-39.4997 35.9997,0 65.4995,19.4998 88.4993,58.4995 22.9998,38.9997 34.4997,96.8379 34.4997,173.499 0,76.6687 -0.999992,127.668 -2.99998,152.999 -1.99998,25.3385 -7.33059,48.9996 -15.9999,71.0075 19.3386,15.3305 40.3384,22.9998 62.9995,22.9998 17.9999,0 32.9997,-5.66931 44.9996,-16.9999 11.9999,-11.3386 17.9999,-26.6691 17.9999,-46.0077l0.999992 -411.997z"/></glyph>
   <glyph unicode="W" horiz-adv-x="942"><path d="M855.001 707.002c21.3305,0 37.1691,-3.66933 47.4996,-10.9999 10.3306,-7.33865 15.4999,-18.6692 15.4999,-33.9997 0,-9.99992 -3.99997,-30.3385 -11.9999,-60.9995l-166.999 -598.003c-24.6692,-10.6693 -49.3383,-15.9999 -73.9994,-15.9999 -17.3386,0 -31.8385,2.66933 -43.4996,7.99994 -11.6693,5.3306 -18.8386,13.3305 -21.4998,23.9998l-125.007 474.996 -131.999 -490.996c-26.6611,-10.6693 -50.6609,-15.9999 -71.9994,-15.9999 -41.9997,0 -65.3301,10.6693 -69.9994,31.9997l-155.999 610.003c-2.66933,9.33057 -6.33059,19.1611 -10.9999,29.4998 -4.66932,10.3306 -10.3306,18.8305 -16.9999,25.4998 13.9999,16.6612 35.9997,24.9998 65.9995,24.9998 41.3303,0 64.9995,-14.3386 70.9994,-42.9997l131.999 -587.003 124.999 476.004c1.99998,11.3306 2.99998,20.6611 2.99998,27.9998 0,13.9999 -2.33063,26.3304 -6.99994,36.9997 10.6693,5.3306 23.3385,9.49992 37.9997,12.4999 14.6692,2.99998 27.9998,4.49996 39.9997,4.49996 32.0078,0 50.6689,-9.33863 56.0076,-27.9998l139.999 -530.004 116.999 549.004c0.661285,3.33062 1.66128,8.99993 2.99998,16.9999 1.33063,7.99994 1.99998,15.3305 1.99998,21.9998 0,12.6612 -2.33869,22.3305 -6.99994,28.9998 1.99998,0.661285 8.16122,2.66127 18.4999,5.99995 10.3306,3.33062 23.8305,4.99996 40.4997,4.99996z"/></glyph>
   <glyph unicode="e" horiz-adv-x="519"><path d="M458.996 137.999c10.6693,-4.66932 15.9999,-12.9999 15.9999,-24.9998 0,-7.99994 -2.33063,-17.6692 -6.99994,-28.9998 -12.6612,-31.3304 -35.161,-55.3302 -67.4995,-71.9994 -32.3304,-16.6692 -71.1607,-24.9998 -116.499,-24.9998 -75.9994,0 -135.83,23.3305 -179.499,69.9994 -43.669,46.669 -65.4995,112.999 -65.4995,198.998 0,84.6687 21.3305,150.837 63.9995,198.498 42.669,47.669 103.669,71.5075 182.999,71.5075 57.9995,0 104.999,-12.8386 140.999,-38.5078 35.9997,-25.6611 53.9996,-62.1608 53.9996,-109.499 0,-49.3302 -19.8305,-87.1606 -59.4995,-113.499 -39.661,-26.3304 -93.4992,-39.4997 -161.499,-39.4997 -38.661,0 -72.9994,1.66934 -102.999,4.99996 4.66932,-61.9995 20.3385,-106.33 46.9996,-132.999 26.6691,-26.6691 62.9995,-39.9997 108.999,-39.9997 35.9997,0 66.8382,7.33059 92.4993,21.9998 25.6691,14.6692 43.4996,34.3304 53.4996,58.9995zm-176.999 346.997c-39.3303,0 -70.1607,-18.4999 -92.4993,-55.4996 -22.3305,-36.9997 -33.4997,-89.4993 -33.4997,-157.499 17.3386,-1.99998 34.9997,-2.99998 52.9996,-2.99998 45.3383,0 82.338,8.99993 110.999,26.9998 28.6691,17.9999 42.9997,50.9996 42.9997,98.9992 0,32.6691 -7.66123,55.8383 -22.9998,69.4994 -15.3305,13.6692 -34.661,20.4998 -57.9995,20.4998z"/></glyph>
   <glyph unicode="b" horiz-adv-x="549"><path d="M273.998 -12.9999c-41.3303,0 -80.6606,5.66931 -117.999,16.9999 -37.3303,11.3306 -67.3301,27.6691 -89.9993,48.9996l0 621.003c0,17.9999 5.49996,32.161 16.4999,42.4997 10.9999,10.3306 25.1692,15.4999 42.4997,15.4999 13.9999,0 26.9998,-2.66933 38.9997,-7.99994 11.9999,-5.33867 21.3385,-10.9999 27.9998,-16.9999 -11.3306,-45.3383 -16.9999,-106.338 -16.9999,-182.999l-0.999992 -110.007c11.9999,33.9997 31.9997,61.1689 59.9995,81.4993 27.9998,20.3385 61.3382,30.5078 99.9992,30.5078 55.9995,0 99.3379,-20.1692 129.999,-60.5076 30.6691,-40.3303 46.0077,-103.499 46.0077,-189.498 0,-89.9993 -19.1692,-160.668 -57.5076,-211.998 -38.3303,-51.3302 -97.8299,-76.9994 -178.499,-76.9994zm-9.99992 46.9996c50.6689,0 84.838,21.8305 102.499,65.4995 17.6692,43.669 26.4998,102.838 26.4998,177.499 0,65.3382 -6.83059,113.168 -20.4998,143.499 -13.6612,30.3385 -34.4997,45.4996 -62.4995,45.4996 -44.6609,0 -78.33,-22.1611 -100.999,-66.4995 -22.6611,-44.3303 -33.9997,-97.1605 -33.9997,-158.499l0 -177.999c8.66928,-7.99994 21.3385,-14.8305 37.9997,-20.4998 16.6692,-5.66931 33.6691,-8.49993 50.9996,-8.49993z"/></glyph>
   <glyph unicode="u" horiz-adv-x="575"><path d="M544.004 83.9993c7.99994,-11.3306 11.9999,-23.6692 11.9999,-36.9997 0,-17.9999 -6.16931,-32.3304 -18.4999,-42.9997 -12.3386,-10.6693 -29.8385,-15.9999 -52.5076,-15.9999 -29.3304,0 -51.8302,9.66928 -67.4995,28.9998 -15.6612,19.3305 -23.4998,48.3303 -23.4998,86.9993l0 1.99998c-13.9999,-38.669 -34.8304,-68.3301 -62.4995,-88.9993 -27.6611,-20.6692 -61.8301,-30.9998 -102.499,-30.9998 -54.6608,0 -94.4992,15.6692 -119.499,46.9996 -24.9998,31.3304 -37.4997,83.9993 -37.4997,157.999l-0.999992 190.998c0,51.3383 -5.3306,91.338 -15.9999,120.007 18.6692,15.9999 39.669,23.9998 62.9995,23.9998 18.6692,0 33.8304,-5.16931 45.4996,-15.4999 11.6693,-10.3386 17.4999,-24.5079 17.4999,-42.5077l0 -260.998c0,-59.9995 5.99995,-102.83 17.9999,-128.499 11.9999,-25.6691 33.6691,-38.4997 64.9995,-38.4997 21.3385,0 40.9997,8.49993 58.9995,25.4998 17.9999,16.9999 32.4997,43.169 43.4996,78.4994 10.9999,35.3384 16.4999,78.9994 16.4999,130.999 0,78.6687 -0.999992,130.838 -2.99998,156.499 -1.99998,25.6691 -7.33059,49.4996 -15.9999,71.5075 19.3386,15.3305 40.3384,22.9998 62.9995,22.9998 17.9999,0 32.9997,-5.66931 44.9996,-16.9999 11.9999,-11.3386 17.9999,-26.6691 17.9999,-46.0077l0.999992 -340.997c0,-18.6692 2.16934,-31.8304 6.49995,-39.4997 4.33867,-7.66929 11.1693,-11.4999 20.5079,-11.4999 11.9999,0 20.6611,4.33061 25.9998,12.9999z"/></glyph>
   <glyph unicode=" " horiz-adv-x="215"></glyph>
   <glyph unicode="a" horiz-adv-x="559"><path d="M539.004 88.9993c7.99994,-10.6693 11.9999,-22.9998 11.9999,-36.9997 0,-17.3305 -7.66929,-31.9997 -22.9998,-43.9996 -15.3386,-11.9999 -35.0078,-17.9999 -59.0076,-17.9999 -32.661,0 -57.3302,11.1693 -73.9994,33.4997 -16.6612,22.3305 -25.3304,58.4995 -25.9998,108.499 -19.9998,-43.3303 -47.3303,-77.9994 -81.9993,-103.999 -34.661,-25.9998 -74.33,-38.9997 -118.999,-38.9997 -38.669,0 -69.8301,10.4999 -93.4992,31.4997 -23.6692,20.9998 -35.4997,49.4996 -35.4997,85.4993 0,41.9997 15.9999,76.6687 47.9996,103.999 31.9997,27.3385 72.9994,47.9996 122.999,61.9995 49.9996,13.9999 100.999,20.3385 152.999,18.9998l0 24.9998c0,57.9995 -7.99994,100.669 -23.9998,127.999 -15.9999,27.3385 -42.6609,40.9997 -79.9994,40.9997 -25.3304,0 -45.8303,-5.99995 -61.4995,-17.9999 -15.6612,-11.9999 -23.4998,-31.661 -23.4998,-58.9995 0,-15.3305 2.99998,-29.6611 8.99993,-42.9997 5.99995,-13.3305 15.9999,-23.3305 29.9998,-29.9998 -6.66124,-7.33059 -15.4999,-12.8305 -26.4998,-16.4999 -10.9999,-3.66126 -22.4998,-5.49996 -34.4997,-5.49996 -26.6691,0 -48.169,8.83864 -64.4995,26.4998 -16.3305,17.6692 -24.4998,39.169 -24.4998,64.4995 0,39.3384 17.9999,69.4994 53.9996,90.4993 35.9997,21.0079 85.6687,31.5078 148.999,31.5078 71.9994,0 124.838,-17.1692 158.499,-51.5076 33.6691,-34.3304 50.4996,-89.1606 50.4996,-164.499l0 -183.999c0,-35.3304 11.3386,-52.9996 34.0078,-52.9996 5.3306,0 10.8306,1.33063 16.4999,3.99997 5.66124,2.66933 10.1612,6.6693 13.4999,11.9999zm-321.005 -26.9998c21.9998,0 44.4996,8.83057 67.4995,26.4998 22.9998,17.6692 42.169,41.169 57.4995,70.4994 15.3386,29.3385 22.9998,60.6689 22.9998,93.9992 -23.3305,1.3387 -46.9996,0.169353 -70.9994,-3.49997 -23.9998,-3.66126 -44.6609,-9.49992 -61.9995,-17.4999 -23.3305,-9.99992 -41.4997,-23.4998 -54.4996,-40.4997 -12.9999,-16.9999 -19.4998,-36.8303 -19.4998,-59.4995 0,-19.9998 4.83061,-36.6691 14.4999,-49.9996 9.66928,-13.3305 24.4998,-19.9998 44.4996,-19.9998z"/></glyph>
   <glyph unicode="r" horiz-adv-x="456"><path d="M313.997 526.004c36.6691,0 66.3382,-9.66928 88.9993,-29.0078 22.6692,-19.3305 33.9997,-45.9996 33.9997,-79.9994 0,-25.3304 -7.33059,-45.6609 -21.9998,-60.9995 -14.6612,-15.3305 -32.9997,-22.9998 -54.9996,-22.9998 -20.6611,0 -35.661,5.33867 -44.9996,15.9999 7.33865,11.9999 12.3386,22.8385 14.9999,32.4997 2.66933,9.66928 3.99997,20.8385 3.99997,33.4997 0,37.9997 -16.6612,56.9995 -49.9996,56.9995 -26.6611,0 -48.1609,-19.4998 -64.4995,-58.4995 -16.3305,-38.9997 -24.4998,-97.4992 -24.4998,-175.499l0 -37.9997c0,-59.3302 0.999992,-100.169 2.99998,-122.499 1.99998,-22.3305 6.99994,-43.4996 14.9999,-63.4995 -6.66124,-5.99995 -15.3305,-11.3306 -25.9998,-15.9999 -10.6612,-4.66932 -22.9998,-7.33059 -36.9997,-7.99994 -17.9999,0 -33.1691,5.66931 -45.4996,16.9999 -12.3305,11.3306 -18.4999,26.6691 -18.4999,45.9996l0 337.997c0,17.9999 -2.16934,31.1691 -6.49995,39.4997 -4.33061,8.33864 -11.1693,12.4999 -20.4998,12.4999 -12.6693,0 -21.3305,-4.66125 -25.9998,-13.9999 -8.66928,12.6693 -12.9999,25.3385 -12.9999,37.9997 0,17.3386 6.33059,31.4997 18.9998,42.5077 12.6693,10.9999 30.3304,16.4999 52.9996,16.4999 27.3304,0 48.9996,-9.33863 64.9995,-28.0078 15.9999,-18.6611 24.3385,-46.3303 24.9998,-82.9993 23.3385,73.9994 67.3382,111.007 131.999,111.007z"/></glyph>
   <glyph unicode="o" horiz-adv-x="555"><path d="M276.998 -12.9999c-75.33,0 -133.83,23.6692 -175.499,70.9994 -41.669,47.3303 -62.4995,113.338 -62.4995,197.998 0,85.338 20.9998,151.668 62.9995,198.998 41.9997,47.3383 100.338,71.0075 174.999,71.0075 75.3381,0 133.999,-23.6692 175.999,-71.0075 41.9997,-47.3303 63.0076,-113.66 63.0076,-198.998 0,-84.6606 -21.0079,-150.668 -63.0076,-197.998 -41.9997,-47.3303 -100.66,-70.9994 -175.999,-70.9994zm0 40.9997c39.9997,0 70.1688,19.3305 90.4993,57.9995 20.3385,38.669 30.4998,95.3379 30.4998,169.999 0,75.3381 -10.1612,132.338 -30.4998,170.999 -20.3305,38.669 -50.4996,57.9995 -90.4993,57.9995 -39.9997,0 -70.1607,-19.3305 -90.4993,-57.9995 -20.3305,-38.661 -30.4998,-95.6605 -30.4998,-170.999 0,-74.6607 10.1693,-131.33 30.4998,-169.999 20.3385,-38.669 50.4996,-57.9995 90.4993,-57.9995z"/></glyph>
   <glyph unicode="l" horiz-adv-x="281"><path d="M181.999 -9.99992c-35.3304,0 -62.4995,11.1693 -81.4993,33.4997 -18.9998,22.3305 -28.4998,53.4996 -28.4998,93.4992l0 557.004c0,17.9999 5.8306,32.161 17.4999,42.4997 11.6693,10.3306 26.8304,15.4999 45.4996,15.4999 24.6692,0 45.3383,-8.33864 61.9995,-24.9998 -6.66124,-23.9998 -10.9999,-49.8383 -12.9999,-77.4994 -1.99998,-27.6691 -2.99998,-66.8382 -2.99998,-117.499l0 -386.005c0,-35.3304 11.9999,-52.9996 35.9997,-52.9996 6.6693,0 13.1692,1.33063 19.4998,3.99997 6.33866,2.66933 10.8386,6.6693 13.4999,11.9999 8.66928,-10.6693 12.9999,-22.9998 12.9999,-36.9997 0,-17.9999 -7.99994,-32.8304 -23.9998,-44.4996 -15.9999,-11.6693 -34.9997,-17.4999 -56.9995,-17.4999z"/></glyph>
   <glyph unicode="i" horiz-adv-x="266"><path d="M131.999 588.003c-18.6692,0 -34.4997,6.33059 -47.4996,18.9998 -12.9999,12.6612 -19.4998,27.9998 -19.4998,45.9996 0,18.6611 6.49995,34.4997 19.4998,47.4996 12.9999,12.9999 28.8304,19.4998 47.4996,19.4998 17.9999,0 33.4997,-6.49995 46.4996,-19.4998 12.9999,-12.9999 19.4998,-28.8385 19.4998,-47.4996 0,-17.9999 -6.49995,-33.3384 -19.4998,-45.9996 -12.9999,-12.6693 -28.4998,-18.9998 -46.4996,-18.9998zm58.9995 -457.004c0,-51.9996 5.33867,-91.6686 15.9999,-118.999 -18.6611,-16.6692 -39.661,-24.9998 -62.9995,-24.9998 -17.9999,0 -32.6691,5.16931 -43.9996,15.4999 -11.3306,10.3306 -16.9999,24.4998 -16.9999,42.4997l-0.999992 337.997c0,48.669 -5.3306,88.6686 -15.9999,120.007 19.9998,15.9999 40.3303,23.9998 60.9995,23.9998 17.9999,0 32.8304,-5.16931 44.4996,-15.4999 11.6693,-10.3386 17.4999,-24.5079 17.4999,-42.5077l1.99998 -337.997z"/></glyph>
  </font>
  <style type="text/css">
   <![CDATA[
    @font-face { font-family:"Tinos";src:url("#FontID1") format(svg)}
    @font-face { font-family:"Arima Madurai";src:url("#FontID0") format(svg)}
    .str1 {stroke:#EB0000;stroke-width:55.1351}
    .str0 {stroke:#EB0000;stroke-width:2.97732}
    .fil3 {fill:none}
    .fil2 {fill:#FEFEFE}
    .fil0 {fill:#2B2A29}
    .fil4 {fill:black}
    .fil5 {fill:#7E9394}
    .fil1 {fill:#EB0000}
    .fnt0 {font-weight:bold;font-size:484.502px;font-family:'Arima Madurai'}
    .fnt1 {font-weight:bold;font-size:933.014px;font-family:'Tinos'}
   ]]>
  </style>
 </defs>
 <g id="Layer_x0020_1">
  <metadata id="CorelCorpID_0Corel-Layer"/>
  <path class="fil0" d="M495 3954c0,24 6,35 28,45 33,15 74,23 119,26l101 0c146,-8 307,-48 381,-71 88,-28 189,-88 254,-151 5,-5 4,-5 8,-9l147 -182c24,-38 20,-48 54,-82 9,-9 1,-18 13,-29l51 -79c14,-24 33,-42 47,-66 50,-91 112,-178 182,-257l57 -67c107,-116 105,-142 254,-247 87,-62 134,-96 235,-144 29,-13 56,-24 87,-38 28,-13 62,-26 90,-36 33,-12 64,-23 97,-33 66,-21 129,-42 198,-58 48,-12 180,-28 201,-55 -12,-6 -37,-10 -52,-13 -269,-53 -379,-94 -676,-32 -82,18 -161,41 -229,71 -115,50 -214,124 -300,212l-288 298c-58,55 -118,127 -188,180 -42,32 -86,62 -135,85l-54 24c11,-45 30,-86 45,-129 14,-42 29,-84 45,-128l182 -511c10,-28 82,-238 98,-249 2,29 26,64 34,92 22,80 46,162 81,236 5,11 5,10 10,19 7,11 8,12 11,24 21,-6 82,-80 102,-99l74 -59c65,-50 144,-89 220,-121 95,-41 162,-55 262,-81 19,-6 37,-11 54,-15l0 -9c-29,0 -51,-6 -83,-8 -29,-3 -59,-2 -93,-4 -26,-2 -53,-7 -87,-4l-97 4c-16,0 -15,-17 -20,-32 -19,-67 -49,-128 -72,-194 -25,-71 -40,-174 -131,-196 -45,-11 -95,-17 -148,-20l-149 0c-59,3 -116,9 -165,18 -28,4 -56,14 -76,28 -21,14 -30,37 -40,62 -20,46 -35,102 -53,150 -18,48 -37,97 -55,148 -18,51 -38,98 -55,148 -17,48 -40,99 -55,148 -16,52 -37,100 -54,149l-220 596c-12,31 5,25 -9,49 -9,15 -3,18 -12,30 -38,52 -196,514 -211,577 -7,30 -15,55 -15,89z"/>
  <path class="fil1 str0" d="M1748 3739c15,-4 39,-35 65,-59l125 -123c16,-14 48,-50 69,-55 4,13 1,2 5,12l54 153c7,22 14,35 21,55l79 226c26,64 87,55 168,65 78,10 212,6 286,-18 53,-17 47,-26 47,-51 0,-43 -19,-106 -30,-139l-69 -184c-17,-48 -20,-45 -26,-59 -3,-9 -4,-26 -20,-64 -8,-20 -16,-40 -24,-61 -31,-83 -64,-162 -95,-243l-97 -247c-89,20 -207,187 -253,252 -24,35 -44,68 -69,102l-127 208c-26,51 -66,117 -86,169 -6,19 -16,46 -23,61z"/>
  <path class="fil2" d="M1118 3912c3,-11 14,-29 21,-40 7,-14 15,-26 23,-39 2,-4 3,-6 6,-10 0,0 3,-4 3,-4l87 -140c0,0 1,-1 1,-1 17,-29 39,-56 57,-85l217 -282c36,-44 81,-94 122,-134 7,-7 17,-19 29,-30l30 -30c0,-1 1,-1 1,-2l7 -7c3,-4 2,-3 7,-7l15 -14c2,-2 5,-4 8,-7 1,0 1,-1 2,-1 0,-1 1,-1 1,-1l93 -86c0,0 1,-1 1,-1l18 -15c23,-20 49,-44 77,-66l35 -28c0,0 1,-1 1,-1l6 -4c2,-2 1,-1 4,-3l11 -12 -30 -42c-45,18 -98,49 -140,74 -13,8 -20,14 -33,21 -23,12 -101,66 -126,84 -11,7 -19,16 -31,24 -41,28 -82,62 -119,92 -20,16 -38,32 -57,48l-56 52c-15,11 -41,35 -56,50l-106 105c-26,29 -113,119 -140,153 -18,23 -41,52 -61,70 -13,-6 -26,-14 -39,-22l-113 -66c-19,-12 -132,-81 -151,-88 -7,4 -14,13 -20,19 -4,5 -13,14 -17,21 5,2 174,205 190,225 31,38 61,77 95,114l70 85c8,9 17,19 23,28l34 3z"/>
  <path class="fil3 str1" d="M723 3436c49,52 153,148 201,200 52,55 103,110 155,165 190,-381 491,-702 907,-960"/>
  <rect class="fil2" transform="matrix(-1.98583 -0.740172 0.727275 -2.13374 642.181 4241.37)" width="165" height="1264"/>
  <polygon class="fil2" points="1534,1529 1820,1633 2395,2216 1859,2442 "/>
  <polygon class="fil2" points="2057,3127 2324,2899 2747,4009 2366,4018 "/>
  <path class="fil1" d="M3097 2503c178,298 -164,435 -397,511 -229,76 -412,128 -333,374 10,28 69,185 83,199 4,-3 2,-86 70,-147 166,-148 696,-171 748,-594 9,-68 -7,-142 -40,-204 -19,-36 -89,-130 -131,-139z"/>
  <polygon class="fil4" points="3696,1614 3860,1764 3860,2304 3860,2993 3696,2869 "/>
  <polygon class="fil1 str0" points="3696,2925 3860,3075 3860,3615 3860,4303 3696,4179 "/>
  <text x="5161" y="3475"  class="fil5 fnt0">We create your belief</text>
  <g transform="matrix(0.77521 0 0 1 -119.624 -296.901)">
   <text x="5817" y="3134"  class="fil1 fnt1">APTICKS </text>
  </g>
  <g transform="matrix(0.77521 0 0 1 -119.624 -296.901)">
   <text x="10198" y="3134"  class="fil4 fnt1">Solutions</text>
  </g>
  <rect class="fil3" width="11546" height="6246"/>
 </g>
</svg>
